…
``` r
library(dplyr)
```

## fars_read

While doing an analysis on a set of FARS data, it may be useful to have
a function to read in the fars CSV data and convert it to a more
manageable data frame object. This is where the fars_read function comes
in handy. If you wanted to read in the file “accident_2013.csv.bz2” you
could use the fars_read function:

``` r
fars_read("accident_2013.csv.bz2")
#> # A tibble: 30,202 × 50
#>    STATE ST_CASE VE_TOTAL VE_FORMS PVH_INVL  PEDS PERNOTMVIT PERMVIT PERSONS
#>    <dbl>   <dbl>    <dbl>    <dbl>    <dbl> <dbl>      <dbl>   <dbl>   <dbl>
#>  1     1   10001        1        1        0     0          0       8       8
#>  2     1   10002        2        2        0     0          0       2       2
#>  3     1   10003        1        1        0     0          0       1       1
#>  4     1   10004        1        1        0     0          0       3       3
#>  5     1   10005        2        2        0     0          0       3       3
#>  6     1   10006        2        2        0     0          0       3       3
#>  7     1   10007        1        1        0     0          0       1       1
#>  8     1   10008        2        2        0     0          0       2       2
#>  9     1   10009        1        1        0     0          0       1       1
#> 10     1   10010        2        2        0     0          0       4       4
#> # ℹ 30,192 more rows
#> # ℹ 41 more variables: COUNTY <dbl>, CITY <dbl>, DAY <dbl>, MONTH <dbl>,
#> #   YEAR <dbl>, DAY_WEEK <dbl>, HOUR <dbl>, MINUTE <dbl>, NHS <dbl>,
#> #   ROAD_FNC <dbl>, ROUTE <dbl>, TWAY_ID <chr>, TWAY_ID2 <chr>, MILEPT <dbl>,
#> #   LATITUDE <dbl>, LONGITUD <dbl>, SP_JUR <dbl>, HARM_EV <dbl>,
#> #   MAN_COLL <dbl>, RELJCT1 <dbl>, RELJCT2 <dbl>, TYP_INT <dbl>,
#> #   WRK_ZONE <dbl>, REL_ROAD <dbl>, LGT_COND <dbl>, WEATHER1 <dbl>, …
```

## make_filename

Traffic accident fatality data from FARS follows a common structure
“accident_year.csv.bz2”. To avoid typing out the entire filename it may
be helpful to use the make_filename function. This function takes a year
as a character string, integer, or whole-number numeric, and returns a
character string that gives the filename for that year’s data. If you
wanted to read in a FARS data set in as a data frame you could use this
function in combination to the fars_read function as follows:

``` r
fars_read(make_filename(2013))
#> # A tibble: 30,202 × 50
#>    STATE ST_CASE VE_TOTAL VE_FORMS PVH_INVL  PEDS PERNOTMVIT PERMVIT PERSONS
#>    <dbl>   <dbl>    <dbl>    <dbl>    <dbl> <dbl>      <dbl>   <dbl>   <dbl>
#>  1     1   10001        1        1        0     0          0       8       8
#>  2     1   10002        2        2        0     0          0       2       2
#>  3     1   10003        1        1        0     0          0       1       1
#>  4     1   10004        1        1        0     0          0       3       3
#>  5     1   10005        2        2        0     0          0       3       3
#>  6     1   10006        2        2        0     0          0       3       3
#>  7     1   10007        1        1        0     0          0       1       1
#>  8     1   10008        2        2        0     0          0       2       2
#>  9     1   10009        1        1        0     0          0       1       1
#> 10     1   10010        2        2        0     0          0       4       4
#> # ℹ 30,192 more rows
#> # ℹ 41 more variables: COUNTY <dbl>, CITY <dbl>, DAY <dbl>, MONTH <dbl>,
#> #   YEAR <dbl>, DAY_WEEK <dbl>, HOUR <dbl>, MINUTE <dbl>, NHS <dbl>,
#> #   ROAD_FNC <dbl>, ROUTE <dbl>, TWAY_ID <chr>, TWAY_ID2 <chr>, MILEPT <dbl>,
#> #   LATITUDE <dbl>, LONGITUD <dbl>, SP_JUR <dbl>, HARM_EV <dbl>,
#> #   MAN_COLL <dbl>, RELJCT1 <dbl>, RELJCT2 <dbl>, TYP_INT <dbl>,
#> #   WRK_ZONE <dbl>, REL_ROAD <dbl>, LGT_COND <dbl>, WEATHER1 <dbl>, …
```
…
